{
  "questions": [
    {
      "id": 1,
      "title": "example",
      "body": "<p>이런 문제가 있어요</p><div data-language=\"javascript\" class=\"toastui-editor-ww-code-block-highlighting\"><pre class=\"language-javascript\"><code data-language=\"javascript\" class=\"language-javascript\"><span class=\"token keyword\">function</span> <span class=\"token punctuation\">(</span><span class=\"token parameter\">a</span><span class=\"token parameter punctuation\">,</span><span class=\"token parameter\"> b</span><span class=\"token punctuation\">)</span> <span class=\"token punctuation\">{</span>\n    <span class=\"token keyword control-flow\">return</span> a <span class=\"token operator\">+</span> b<span class=\"token punctuation\">;</span>\n<span class=\"token punctuation\">}</span></code></pre></div>",
      "details": "<p>이렇게 돼야 하는 거 아닌가요?</p><div data-language=\"javascript\" class=\"toastui-editor-ww-code-block-highlighting\"><pre class=\"language-javascript\"><code data-language=\"javascript\" class=\"language-javascript\"><span class=\"token keyword\">const</span> <span class=\"token function-variable function\">foo</span> <span class=\"token operator\">=</span> <span class=\"token punctuation\">(</span><span class=\"token parameter\">a</span><span class=\"token parameter punctuation\">,</span><span class=\"token parameter\"> b</span><span class=\"token punctuation\">)</span> <span class=\"token arrow operator\">=&gt;</span> <span class=\"token punctuation\">{</span>\n    <span class=\"token keyword control-flow\">return</span> a <span class=\"token operator\">+</span> b<span class=\"token punctuation\">;</span>\n<span class=\"token punctuation\">}</span></code></pre></div>",
      "answers": [
        {
          "id": 1,
          "body": "<p>이렇게 하면 될듯?</p><div data-language=\"javascript\" class=\"toastui-editor-ww-code-block-highlighting\"><pre class=\"language-javascript\"><code data-language=\"javascript\" class=\"language-javascript\"><span class=\"token keyword\">function</span> <span class=\"token punctuation\">(</span><span class=\"token parameter\">a</span><span class=\"token parameter punctuation\">,</span><span class=\"token parameter\"> b</span><span class=\"token punctuation\">)</span> <span class=\"token punctuation\">{</span>\n    <span class=\"token keyword control-flow\">return</span> a <span class=\"token operator\">+</span> b<span class=\"token punctuation\">;</span>\n<span class=\"token punctuation\">}</span></code></pre></div>"
        }
      ],
      "pageInfos": {
        "page": 2,
        "size": 10,
        "totalElements": 11,
        "totalPages": 2
      }
    },
    {
      "title": "example2",
      "body": "<p>12312412412</p>",
      "details": "<p>4124324234234</p>",
      "answers": [
        {
          "body": "<div data-language=\"text\" class=\"toastui-editor-ww-code-block-highlighting\"><pre><code> 123123</code></pre></div>"
        },
        {
          "body": "<blockquote><p>123123123213</p></blockquote>"
        },
        {
          "body": "<div data-language=\"javascript\" class=\"toastui-editor-ww-code-block-highlighting\"><pre class=\"language-javascript\"><code data-language=\"javascript\" class=\"language-javascript\">asdasdasdasdasdasdasdsad</code></pre></div>"
        },
        {
          "body": "<div data-language=\"javascript\" class=\"toastui-editor-ww-code-block-highlighting\"><pre class=\"language-javascript\"><code data-language=\"javascript\" class=\"language-javascript\"><span class=\"token keyword\">function</span> <span class=\"token punctuation\">(</span><span class=\"token parameter\">a</span><span class=\"token parameter punctuation\">,</span><span class=\"token parameter\">b</span><span class=\"token punctuation\">)</span> <span class=\"token punctuation\">{</span>\n    <span class=\"token keyword control-flow\">return</span> a <span class=\"token operator\">+</span> b<span class=\"token punctuation\">;</span>\n<span class=\"token punctuation\">}</span></code></pre></div>"
        }
      ],
      "id": 2
    },
    {
      "title": "234234234234234",
      "body": "<p>23423423423423</p>",
      "details": "<p>4234234234234234</p>",
      "id": 3
    },
    {
      "title": "234234234",
      "body": "<div data-language=\"javascript\" class=\"toastui-editor-ww-code-block-highlighting\"><pre class=\"language-javascript\"><code data-language=\"javascript\" class=\"language-javascript\"><span class=\"token console class-name\">console</span><span class=\"token punctuation\">.</span><span class=\"token method function property-access\">log</span><span class=\"token punctuation\">(</span><span class=\"token string\">'111321323'</span><span class=\"token punctuation\">)</span><span class=\"token punctuation\">;</span></code></pre></div><p>asdasdasd234234234324</p>",
      "details": "",
      "id": 4,
      "answers": []
    },
    {
      "title": "Render buttons under MUI Autocomplete",
      "body": "<p>I am trying to put buttons (\"Accept\" and \"Cancel\") under MUI Autocomplete element and am trying to implement the following  Autocomplete popover height is limited (say to 3 elements). This is done by passing sx to ListboxProps  The buttons are always visible, that is, when the popover is open, the buttons are shown under the popover. I was trying various options to put the buttons within Autocomplete (in Paper, Popper, etc.), but with little luck.  Here is the simplified code:</p>",
      "details": "<div data-language=\"jsx\" class=\"toastui-editor-ww-code-block-highlighting\"><pre class=\"language-jsx\"><code data-language=\"jsx\" class=\"language-jsx\"><span class=\"token keyword module\">import</span> <span class=\"token string\">\"./styles.css\"</span><span class=\"token punctuation\">;</span>\n<span class=\"token keyword module\">import</span> <span class=\"token imports punctuation\">{</span><span class=\"token imports\"> </span><span class=\"token imports maybe-class-name\">Autocomplete</span><span class=\"token imports\"> </span><span class=\"token imports punctuation\">}</span> <span class=\"token keyword module\">from</span> <span class=\"token string\">\"@mui/lab\"</span><span class=\"token punctuation\">;</span>\n<span class=\"token keyword module\">import</span> <span class=\"token imports maybe-class-name\">TextField</span> <span class=\"token keyword module\">from</span> <span class=\"token string\">\"@mui/material/TextField\"</span><span class=\"token punctuation\">;</span>\n<span class=\"token keyword module\">import</span> <span class=\"token imports maybe-class-name\">Paper</span> <span class=\"token keyword module\">from</span> <span class=\"token string\">\"@mui/material/Paper\"</span><span class=\"token punctuation\">;</span>\n<span class=\"token keyword module\">import</span> <span class=\"token imports maybe-class-name\">Box</span> <span class=\"token keyword module\">from</span> <span class=\"token string\">\"@mui/material/Box\"</span><span class=\"token punctuation\">;</span>\n<span class=\"token keyword module\">import</span> <span class=\"token imports maybe-class-name\">Chip</span> <span class=\"token keyword module\">from</span> <span class=\"token string\">\"@mui/material/Chip\"</span><span class=\"token punctuation\">;</span>\n\n<span class=\"token keyword module\">export</span> <span class=\"token keyword module\">default</span> <span class=\"token keyword\">function</span> <span class=\"token function maybe-class-name\">App</span><span class=\"token punctuation\">(</span><span class=\"token punctuation\">)</span> <span class=\"token punctuation\">{</span>\n <span class=\"token keyword control-flow\">return</span> <span class=\"token punctuation\">(</span>\n   <span class=\"token tag punctuation\">&lt;</span><span class=\"token tag\">div</span><span class=\"token tag\"> </span><span class=\"token tag attr-name\">className</span><span class=\"token tag attr-value punctuation attr-equals\">=</span><span class=\"token tag attr-value punctuation\">\"</span><span class=\"token tag attr-value\">App</span><span class=\"token tag attr-value punctuation\">\"</span><span class=\"token tag punctuation\">&gt;</span>\n     <span class=\"token tag punctuation\">&lt;</span><span class=\"token tag class-name\">Paper</span><span class=\"token tag\"> </span><span class=\"token tag attr-name\">sx</span><span class=\"token tag script language-javascript script-punctuation punctuation\">=</span><span class=\"token tag script language-javascript punctuation\">{</span><span class=\"token tag script language-javascript punctuation\">{</span><span class=\"token tag script language-javascript\"> padding</span><span class=\"token tag script language-javascript operator\">:</span><span class=\"token tag script language-javascript\"> </span><span class=\"token tag script language-javascript number\">1</span><span class=\"token tag script language-javascript\"> </span><span class=\"token tag script language-javascript punctuation\">}</span><span class=\"token tag script language-javascript punctuation\">}</span><span class=\"token tag punctuation\">&gt;</span>\n       <span class=\"token tag punctuation\">&lt;</span><span class=\"token tag class-name\">Autocomplete</span><span class=\"token tag\">\n         </span><span class=\"token tag attr-name\">freeSolo</span><span class=\"token tag\">\n         </span><span class=\"token tag attr-name\">options</span><span class=\"token tag script language-javascript script-punctuation punctuation\">=</span><span class=\"token tag script language-javascript punctuation\">{</span><span class=\"token tag script language-javascript punctuation\">[</span><span class=\"token tag script language-javascript string\">\"one\"</span><span class=\"token tag script language-javascript punctuation\">,</span><span class=\"token tag script language-javascript\"> </span><span class=\"token tag script language-javascript string\">\"two\"</span><span class=\"token tag script language-javascript punctuation\">,</span><span class=\"token tag script language-javascript\"> </span><span class=\"token tag script language-javascript string\">\"three\"</span><span class=\"token tag script language-javascript punctuation\">,</span><span class=\"token tag script language-javascript\"> </span><span class=\"token tag script language-javascript string\">\"four\"</span><span class=\"token tag script language-javascript punctuation\">]</span><span class=\"token tag script language-javascript punctuation\">}</span><span class=\"token tag\">\n         </span><span class=\"token tag attr-name\">renderInput</span><span class=\"token tag script language-javascript script-punctuation punctuation\">=</span><span class=\"token tag script language-javascript punctuation\">{</span><span class=\"token tag script language-javascript punctuation\">(</span><span class=\"token tag script language-javascript parameter\">params</span><span class=\"token tag script language-javascript punctuation\">)</span><span class=\"token tag script language-javascript\"> </span><span class=\"token tag script language-javascript arrow operator\">=&gt;</span><span class=\"token tag script language-javascript\"> </span><span class=\"token tag script language-javascript punctuation\">&lt;</span><span class=\"token tag script language-javascript class-name\">TextField</span><span class=\"token tag script language-javascript\"> </span><span class=\"token tag script language-javascript spread punctuation\">{</span><span class=\"token tag script language-javascript spread punctuation\">...</span><span class=\"token tag script language-javascript spread attr-value\">params</span><span class=\"token tag script language-javascript spread punctuation\">}</span><span class=\"token tag script language-javascript\"> </span><span class=\"token tag script language-javascript punctuation\">/&gt;</span><span class=\"token tag script language-javascript punctuation\">}</span><span class=\"token tag\">\n         </span><span class=\"token tag attr-name\">ListboxProps</span><span class=\"token tag script language-javascript script-punctuation punctuation\">=</span><span class=\"token tag script language-javascript punctuation\">{</span><span class=\"token tag script language-javascript punctuation\">{</span><span class=\"token tag script language-javascript\"> sx</span><span class=\"token tag script language-javascript operator\">:</span><span class=\"token tag script language-javascript\"> </span><span class=\"token tag script language-javascript punctuation\">{</span><span class=\"token tag script language-javascript\"> height</span><span class=\"token tag script language-javascript operator\">:</span><span class=\"token tag script language-javascript\"> </span><span class=\"token tag script language-javascript number\">100</span><span class=\"token tag script language-javascript\"> </span><span class=\"token tag script language-javascript punctuation\">}</span><span class=\"token tag script language-javascript\"> </span><span class=\"token tag script language-javascript punctuation\">}</span><span class=\"token tag script language-javascript punctuation\">}</span><span class=\"token tag\">\n       </span><span class=\"token tag punctuation\">/&gt;</span>\n       <span class=\"token tag punctuation\">&lt;</span><span class=\"token tag class-name\">Box</span><span class=\"token tag\"> </span><span class=\"token tag attr-name\">sx</span><span class=\"token tag script language-javascript script-punctuation punctuation\">=</span><span class=\"token tag script language-javascript punctuation\">{</span><span class=\"token tag script language-javascript punctuation\">{</span><span class=\"token tag script language-javascript\"> display</span><span class=\"token tag script language-javascript operator\">:</span><span class=\"token tag script language-javascript\"> </span><span class=\"token tag script language-javascript string\">\"flex\"</span><span class=\"token tag script language-javascript punctuation\">,</span><span class=\"token tag script language-javascript\"> direction</span><span class=\"token tag script language-javascript operator\">:</span><span class=\"token tag script language-javascript\"> </span><span class=\"token tag script language-javascript string\">\"row\"</span><span class=\"token tag script language-javascript\"> </span><span class=\"token tag script language-javascript punctuation\">}</span><span class=\"token tag script language-javascript punctuation\">}</span><span class=\"token tag punctuation\">&gt;</span>\n         <span class=\"token tag punctuation\">&lt;</span><span class=\"token tag class-name\">Chip</span><span class=\"token tag\"> </span><span class=\"token tag attr-name\">label</span><span class=\"token tag attr-value punctuation attr-equals\">=</span><span class=\"token tag attr-value punctuation\">\"</span><span class=\"token tag attr-value\">Accept</span><span class=\"token tag attr-value punctuation\">\"</span><span class=\"token tag\"> </span><span class=\"token tag attr-name\">sx</span><span class=\"token tag script language-javascript script-punctuation punctuation\">=</span><span class=\"token tag script language-javascript punctuation\">{</span><span class=\"token tag script language-javascript punctuation\">{</span><span class=\"token tag script language-javascript\"> margin</span><span class=\"token tag script language-javascript operator\">:</span><span class=\"token tag script language-javascript\"> </span><span class=\"token tag script language-javascript number\">1</span><span class=\"token tag script language-javascript\"> </span><span class=\"token tag script language-javascript punctuation\">}</span><span class=\"token tag script language-javascript punctuation\">}</span><span class=\"token tag\"> </span><span class=\"token tag punctuation\">/&gt;</span>\n         <span class=\"token tag punctuation\">&lt;</span><span class=\"token tag class-name\">Chip</span><span class=\"token tag\"> </span><span class=\"token tag attr-name\">label</span><span class=\"token tag attr-value punctuation attr-equals\">=</span><span class=\"token tag attr-value punctuation\">\"</span><span class=\"token tag attr-value\">Cancel</span><span class=\"token tag attr-value punctuation\">\"</span><span class=\"token tag\"> </span><span class=\"token tag attr-name\">sx</span><span class=\"token tag script language-javascript script-punctuation punctuation\">=</span><span class=\"token tag script language-javascript punctuation\">{</span><span class=\"token tag script language-javascript punctuation\">{</span><span class=\"token tag script language-javascript\"> margin</span><span class=\"token tag script language-javascript operator\">:</span><span class=\"token tag script language-javascript\"> </span><span class=\"token tag script language-javascript number\">1</span><span class=\"token tag script language-javascript\"> </span><span class=\"token tag script language-javascript punctuation\">}</span><span class=\"token tag script language-javascript punctuation\">}</span><span class=\"token tag\"> </span><span class=\"token tag punctuation\">/&gt;</span>\n       <span class=\"token tag punctuation\">&lt;/</span><span class=\"token tag class-name\">Box</span><span class=\"token tag punctuation\">&gt;</span>\n     <span class=\"token tag punctuation\">&lt;/</span><span class=\"token tag class-name\">Paper</span><span class=\"token tag punctuation\">&gt;</span>\n   <span class=\"token tag punctuation\">&lt;/</span><span class=\"token tag\">div</span><span class=\"token tag punctuation\">&gt;</span>\n <span class=\"token punctuation\">)</span><span class=\"token punctuation\">;</span>\n<span class=\"token punctuation\">}</span></code></pre></div>",
      "id": 5
    }
  ]
}